{
  "coord": { "lon": 139, "lat": 35 },
  "weather": [
    {
      "id": 800,
      "main": "Clear",
      "description": "clear sky",
      "icon": "01n"
    }
  ],
  "base": "stations",
  "main": {
    "temp": 289.92,
    "feels_like": 287.61,
    "temp_min": 288.71,
    "temp_max": 290.37,
    "pressure": 1013,
    "humidity": 43
  },
  "visibility": 10000,
  "wind": {
    "speed": 7.31,
    "deg": 240,
    "gust": 13.89
  },
  "clouds": { "all": 0 },
  "dt": 1595243443,
  "sys": {
    "type": 1,
    "id": 8074,
    "country": "JP",
    "sunrise": 1595193796,
    "sunset": 1595240520
  },
  "timezone": 32400,
  "id": 1851632,
  "name": "Shuzenji",
  "cod": 200
}
